NEON forecast challenge
…
  RW_forecast <- bind_rows(RW_forecast, forecast)
  
}

The output from the forecast() function is a forecast
table or fable, which has columns for
variable, site_id, the .model,
the bootstrap value (1 to 200, .rep), and the prediction
(.sim).

RW_forecast %>%
  filter(site_id == 'SUGG')

## # A tsibble: 6,400 x 6 [1D]
## # Key:       variable, site_id, .model, .rep [200]
##    variable    site_id .model datetime   .rep   .sim
##    <chr>       <chr>   <chr>  <date>     <chr> <dbl>
##  1 temperature SUGG    RW     2023-01-02 1      15.8
##  2 temperature SUGG    RW     2023-01-03 1      15.4
##  3 temperature SUGG    RW     2023-01-04 1      15.7
##  4 temperature SUGG    RW     2023-01-05 1      16.6
##  5 temperature SUGG    RW     2023-01-06 1      16.8
##  6 temperature SUGG    RW     2023-01-07 1      17.2
##  7 temperature SUGG    RW     2023-01-08 1      18.3
##  8 temperature SUGG    RW     2023-01-09 1      18.4
##  9 temperature SUGG    RW     2023-01-10 1      18.2
## 10 temperature SUGG    RW     2023-01-11 1      18.3
## #  with 6,390 more rows
…
Then we use the model weve specified to forecast.
h = 30 specifies the horizon of the forecast, relative to
the index of the data (as 30 days). If the index, in this case
datetime, had a different value such as monthly, the
h = value would be months. We use
forecast(... , bootstrap = F) to run a non-bootstrapped
forecast. The forecast will run for each key combination
(variable-site_id). When bootstrap = F, the model assumes a normal
distribution. This would be an example of a distributional forecast that
can be submitted to the Challenge.

SN_forecast <- SN_model %>% forecast(h = 30, bootstrap = F)
SN_forecast

## # A fable: 210 x 6 [1D]
## # Key:     variable, site_id, .model [7]
##    variable    site_id .model datetime   observation .mean
##    <chr>       <chr>   <chr>  <date>          <dist> <dbl>
##  1 temperature BARC    SN     2023-01-05  N(19, 4.1)  19.1
##  2 temperature BARC    SN     2023-01-06  N(19, 4.1)  18.8
##  3 temperature BARC    SN     2023-01-07  N(NA, 4.1)  NA  
##  4 temperature BARC    SN     2023-01-08  N(NA, 4.1)  NA  
##  5 temperature BARC    SN     2023-01-09  N(NA, 4.1)  NA  
##  6 temperature BARC    SN     2023-01-10  N(NA, 4.1)  NA  
##  7 temperature BARC    SN     2023-01-11  N(NA, 4.1)  NA  
##  8 temperature BARC    SN     2023-01-12  N(NA, 4.1)  NA  
##  9 temperature BARC    SN     2023-01-13  N(NA, 4.1)  NA  
## 10 temperature BARC    SN     2023-01-14  N(NA, 4.1)  NA  
## #  with 200 more rows
…
model_name <- 'example_climatology'
SN_forecast_EFI <- convert_to_efi_standard(SN_forecast, 
                                           model_id = model_name)

## # A tsibble: 420 x 8 [1D]
## # Key:       site_id, parameter [14]
##    model_id         datetime   referenc site_id family param varia predi
##    <chr>            <date>     <date>     <chr>   <chr>  <chr>   <chr>     <dbl>
##  1 example_climato 2023-01-05 2023-01-04 BARC    normal mu      temper   19.1 
##  2 example_climato 2023-01-05 2023-01-04 BARC    normal sigma   temper    2.03
##  3 example_climato 2023-01-06 2023-01-04 BARC    normal mu      temper   18.8 
##  4 example_climato 2023-01-06 2023-01-04 BARC    normal sigma   temper    2.03
##  5 example_climato 2023-01-07 2023-01-04 BARC    normal mu      temper   NA   
##  6 example_climato 2023-01-07 2023-01-04 BARC    normal sigma   temper    2.03
##  7 example_climato 2023-01-08 2023-01-04 BARC    normal mu      temper   NA   
##  8 example_climato 2023-01-08 2023-01-04 BARC    normal sigma   temper    2.03
##  9 example_climato 2023-01-09 2023-01-04 BARC    normal mu      temper   NA   
## 10 example_climato 2023-01-09 2023-01-04 BARC    normal sigma   temper    2.03
## #  with 410 more rows, and abbreviated variable names reference_datetime,
## #   parameter, variable, prediction
…
