…
variables <- c("air_temperature")
#Other variable names can be found at https://projects.ecoforecast.org/neon4cast-docs/Shared-Forecast-Drivers.html#stage-3

noaa_past <- noaa_past_s3  |> 
  dplyr::filter(site_id %in% lake_sites$field_site_id,
                datetime >= ymd('2017-01-01'),
                variable %in% variables) |> 
  dplyr::collect()

noaa_past
```

    ## # A tibble: 7,749,721 × 7
    ##    parameter datetime            variable   prediction family reference_datetime
    ##        <dbl> <dttm>              <chr>           <dbl> <chr>  <lgl>             
    ##  1         0 2020-09-24 00:00:00 air_tempe…       291. ensem… NA                
    ##  2         1 2020-09-24 00:00:00 air_tempe…       291. ensem… NA                
    ##  3         2 2020-09-24 00:00:00 air_tempe…       291. ensem… NA                
    ##  4         3 2020-09-24 00:00:00 air_tempe…       292. ensem… NA                
    ##  5         4 2020-09-24 00:00:00 air_tempe…       291. ensem… NA                
    ##  6         5 2020-09-24 00:00:00 air_tempe…       290. ensem… NA                
    ##  7         6 2020-09-24 00:00:00 air_tempe…       291. ensem… NA                
    ##  8         7 2020-09-24 00:00:00 air_tempe…       291. ensem… NA                
    ##  9         8 2020-09-24 00:00:00 air_tempe…       292. ensem… NA                
    ## 10         9 2020-09-24 00:00:00 air_tempe…       291. ensem… NA                
    ## # ℹ 7,749,711 more rows
    ## # ℹ 1 more variable: site_id <chr>
…
    ## `summarise()` has grouped output by 'datetime', 'site_id', 'parameter'. You can
    ## override using the `.groups` argument.

``` r
noaa_future_daily
```

    ## # A tibble: 7,595 × 4
    ## # Groups:   datetime, site_id, parameter [7,595]
    ##    datetime   site_id air_temperature parameter
    ##    <date>     <chr>             <dbl>     <dbl>
    ##  1 2024-10-21 BARC               20.9         0
    ##  2 2024-10-21 BARC               21.3         1
    ##  3 2024-10-21 BARC               21.7         2
    ##  4 2024-10-21 BARC               19.9         3
    ##  5 2024-10-21 BARC               20.5         4
    ##  6 2024-10-21 BARC               22.3         5
    ##  7 2024-10-21 BARC               21.2         6
    ##  8 2024-10-21 BARC               22.1         7
    ##  9 2024-10-21 BARC               21.1         8
    ## 10 2024-10-21 BARC               21.5         9
    ## # ℹ 7,585 more rows
…
  RW_forecast <- bind_rows(RW_forecast, forecast)
  
}
```

The output from the `forecast()` function is a forecast table or
`fable`, which has columns for `variable`, `site_id`, the `.model`, the
bootstrap value (1 to 200, `.rep`), and the prediction (`.sim`).

``` r
RW_forecast %>%
  filter(site_id == 'SUGG')
```

    ## # A tsibble: 6,200 x 6 [1D]
    ## # Key:       variable, site_id, .model, .rep [200]
    ##    variable    site_id .model datetime   .rep   .sim
    ##    <chr>       <chr>   <chr>  <date>     <chr> <dbl>
    ##  1 temperature SUGG    RW     2024-10-20 1      21.4
    ##  2 temperature SUGG    RW     2024-10-21 1      21.3
    ##  3 temperature SUGG    RW     2024-10-22 1      21.0
    ##  4 temperature SUGG    RW     2024-10-23 1      19.8
    ##  5 temperature SUGG    RW     2024-10-24 1      19.0
    ##  6 temperature SUGG    RW     2024-10-25 1      19.2
    ##  7 temperature SUGG    RW     2024-10-26 1      19.3
    ##  8 temperature SUGG    RW     2024-10-27 1      19.1
    ##  9 temperature SUGG    RW     2024-10-28 1      19.2
    ## 10 temperature SUGG    RW     2024-10-29 1      19.0
    ## # ℹ 6,190 more rows
…
``` r
SN_forecast <- SN_model %>% forecast(h = 30, bootstrap = F)
SN_forecast
```

    ## # A fable: 210 x 6 [1D]
    ## # Key:     variable, site_id, .model [7]
    ##    variable    site_id .model datetime   observation .mean
    ##    <chr>       <chr>   <chr>  <date>          <dist> <dbl>
    ##  1 temperature BARC    SN     2024-10-22  N(24, 3.8)  24.0
    ##  2 temperature BARC    SN     2024-10-23  N(24, 3.8)  23.9
    ##  3 temperature BARC    SN     2024-10-24  N(24, 3.8)  23.9
    ##  4 temperature BARC    SN     2024-10-25  N(24, 3.8)  24.0
    ##  5 temperature BARC    SN     2024-10-26  N(24, 3.8)  24.1
    ##  6 temperature BARC    SN     2024-10-27  N(24, 3.8)  24.3
    ##  7 temperature BARC    SN     2024-10-28  N(24, 3.8)  24.5
    ##  8 temperature BARC    SN     2024-10-29  N(25, 3.8)  24.7
    ##  9 temperature BARC    SN     2024-10-30  N(25, 3.8)  25.0
    ## 10 temperature BARC    SN     2024-10-31  N(25, 3.8)  24.5
    ## # ℹ 200 more rows
…
``` r
model_name <- 'example_climatology'
SN_forecast_EFI <- convert_to_efi_standard(SN_forecast, 
                                           model_id = model_name)
```

    ## # A tsibble: 420 x 8 [1D]
    ## # Key:       site_id, parameter [14]
    ##    model_id      datetime   reference_datetime site_id family parameter variable
    ##    <chr>         <date>     <date>             <chr>   <chr>  <chr>     <chr>   
    ##  1 example_clim… 2024-10-22 2024-10-21         BARC    normal mu        tempera…
    ##  2 example_clim… 2024-10-22 2024-10-21         BARC    normal sigma     tempera…
    ##  3 example_clim… 2024-10-23 2024-10-21         BARC    normal mu        tempera…
    ##  4 example_clim… 2024-10-23 2024-10-21         BARC    normal sigma     tempera…
    ##  5 example_clim… 2024-10-24 2024-10-21         BARC    normal mu        tempera…
    ##  6 example_clim… 2024-10-24 2024-10-21         BARC    normal sigma     tempera…
    ##  7 example_clim… 2024-10-25 2024-10-21         BARC    normal mu        tempera…
    ##  8 example_clim… 2024-10-25 2024-10-21         BARC    normal sigma     tempera…
    ##  9 example_clim… 2024-10-26 2024-10-21         BARC    normal mu        tempera…
    ## 10 example_clim… 2024-10-26 2024-10-21         BARC    normal sigma     tempera…
    ## # ℹ 410 more rows
    ## # ℹ 1 more variable: prediction <dbl>
…
