…
variables <- c("air_temperature")
#Other variable names can be found at https://projects.ecoforecast.org/neon4cast-docs/Shared-Forecast-Drivers.html#stage-2

noaa_past <- df_past |> 
  dplyr::filter(site_id %in% lake_sites$field_site_id,
                datetime >= ymd('2017-01-01'),
                variable %in% variables) |> 
  dplyr::collect()

noaa_past
```

    ## # A tibble: 7,805,304 × 9
    ##    datetime            site_id longitude latitude family  param…¹ varia…² height
    ##    <dttm>              <chr>       <dbl>    <dbl> <chr>     <int> <chr>   <chr> 
    ##  1 2021-03-20 04:00:00 CRAM        -89.5     46.2 ensemb…       3 air_te… 2 m a…
    ##  2 2021-03-20 04:00:00 CRAM        -89.5     46.2 ensemb…       4 air_te… 2 m a…
    ##  3 2021-03-20 04:00:00 CRAM        -89.5     46.2 ensemb…       5 air_te… 2 m a…
    ##  4 2021-03-20 04:00:00 CRAM        -89.5     46.2 ensemb…       6 air_te… 2 m a…
    ##  5 2021-03-20 04:00:00 CRAM        -89.5     46.2 ensemb…       7 air_te… 2 m a…
    ##  6 2021-03-20 04:00:00 CRAM        -89.5     46.2 ensemb…       8 air_te… 2 m a…
    ##  7 2021-03-20 04:00:00 CRAM        -89.5     46.2 ensemb…       9 air_te… 2 m a…
    ##  8 2021-03-20 04:00:00 CRAM        -89.5     46.2 ensemb…      10 air_te… 2 m a…
    ##  9 2021-03-20 04:00:00 CRAM        -89.5     46.2 ensemb…      11 air_te… 2 m a…
    ## 10 2021-03-20 04:00:00 CRAM        -89.5     46.2 ensemb…      12 air_te… 2 m a…
    ## # … with 7,805,294 more rows, 1 more variable: prediction <dbl>, and
    ## #   abbreviated variable names ¹​parameter, ²​variable
…
df_future <- neon4cast::noaa_stage2()

variables <- c("air_temperature")

noaa_future <- df_future |> 
  dplyr::filter(reference_datetime == noaa_date,
                datetime >= forecast_date,
                site_id %in% lake_sites$field_site_id,
                variable %in% variables) |> 
  dplyr::collect()
noaa_future
```

    ## # A tibble: 174,097 × 13
    ##    site_id prediction varia…¹ height horizon param…² reference_datetime  forec…³
    ##    <chr>        <dbl> <chr>   <chr>    <dbl>   <int> <dttm>              <chr>  
    ##  1 BARC          289. air_te… 2 m a…      24       1 2023-01-09 00:00:00 24 hou…
    ##  2 BARC          288. air_te… 2 m a…      25       1 2023-01-09 00:00:00 25 hou…
    ##  3 BARC          287. air_te… 2 m a…      26       1 2023-01-09 00:00:00 26 hou…
    ##  4 BARC          286. air_te… 2 m a…      27       1 2023-01-09 00:00:00 27 hou…
    ##  5 BARC          285. air_te… 2 m a…      28       1 2023-01-09 00:00:00 28 hou…
    ##  6 BARC          285. air_te… 2 m a…      29       1 2023-01-09 00:00:00 29 hou…
    ##  7 BARC          285. air_te… 2 m a…      30       1 2023-01-09 00:00:00 30 hou…
    ##  8 BARC          284. air_te… 2 m a…      31       1 2023-01-09 00:00:00 31 hou…
    ##  9 BARC          284. air_te… 2 m a…      32       1 2023-01-09 00:00:00 32 hou…
    ## 10 BARC          284. air_te… 2 m a…      33       1 2023-01-09 00:00:00 33 hou…
    ## # … with 174,087 more rows, 5 more variables: datetime <dttm>, longitude <dbl>,
    ## #   latitude <dbl>, family <chr>, start_date <chr>, and abbreviated variable
    ## #   names ¹​variable, ²​parameter, ³​forecast_valid
…
    ## `summarise()` has grouped output by 'datetime', 'site_id', 'parameter'. You can
    ## override using the `.groups` argument.

``` r
noaa_future_daily
```

    ## # A tibble: 7,462 × 4
    ## # Groups:   datetime, site_id, parameter [7,462]
    ##    datetime   site_id air_temperature parameter
    ##    <date>     <chr>             <dbl>     <int>
    ##  1 2023-01-10 BARC               13.9         1
    ##  2 2023-01-10 BARC               13.3         2
    ##  3 2023-01-10 BARC               15.3         3
    ##  4 2023-01-10 BARC               13.6         4
    ##  5 2023-01-10 BARC               15.2         5
    ##  6 2023-01-10 BARC               14.3         6
    ##  7 2023-01-10 BARC               13.5         7
    ##  8 2023-01-10 BARC               13.9         8
    ##  9 2023-01-10 BARC               13.9         9
    ## 10 2023-01-10 BARC               14.7        10
    ## # … with 7,452 more rows
…
  RW_forecast <- bind_rows(RW_forecast, forecast)
  
}
```

The output from the `forecast()` function is a forecast table or
`fable`, which has columns for `variable`, `site_id`, the `.model`, the
bootstrap value (1 to 200, `.rep`), and the prediction (`.sim`).

``` r
RW_forecast %>%
  filter(site_id == 'SUGG')
```

    ## # A tsibble: 6,200 x 6 [1D]
    ## # Key:       variable, site_id, .model, .rep [200]
    ##    variable    site_id .model datetime   .rep   .sim
    ##    <chr>       <chr>   <chr>  <date>     <chr> <dbl>
    ##  1 temperature SUGG    RW     2023-01-09 1      15.5
    ##  2 temperature SUGG    RW     2023-01-10 1      15.7
    ##  3 temperature SUGG    RW     2023-01-11 1      14.8
    ##  4 temperature SUGG    RW     2023-01-12 1      15.1
    ##  5 temperature SUGG    RW     2023-01-13 1      14.9
    ##  6 temperature SUGG    RW     2023-01-14 1      14.4
    ##  7 temperature SUGG    RW     2023-01-15 1      15.0
    ##  8 temperature SUGG    RW     2023-01-16 1      14.6
    ##  9 temperature SUGG    RW     2023-01-17 1      14.9
    ## 10 temperature SUGG    RW     2023-01-18 1      15.0
    ## # … with 6,190 more rows
…
``` r
SN_forecast <- SN_model %>% forecast(h = 30, bootstrap = F)
SN_forecast
```

    ## # A fable: 210 x 6 [1D]
    ## # Key:     variable, site_id, .model [7]
    ##    variable    site_id .model datetime   observation .mean
    ##    <chr>       <chr>   <chr>  <date>          <dist> <dbl>
    ##  1 temperature BARC    SN     2023-01-11  N(NA, 4.1)    NA
    ##  2 temperature BARC    SN     2023-01-12  N(NA, 4.1)    NA
    ##  3 temperature BARC    SN     2023-01-13  N(NA, 4.1)    NA
    ##  4 temperature BARC    SN     2023-01-14  N(NA, 4.1)    NA
    ##  5 temperature BARC    SN     2023-01-15  N(NA, 4.1)    NA
    ##  6 temperature BARC    SN     2023-01-16  N(NA, 4.1)    NA
    ##  7 temperature BARC    SN     2023-01-17  N(NA, 4.1)    NA
    ##  8 temperature BARC    SN     2023-01-18  N(NA, 4.1)    NA
    ##  9 temperature BARC    SN     2023-01-19  N(NA, 4.1)    NA
    ## 10 temperature BARC    SN     2023-01-20  N(NA, 4.1)    NA
    ## # … with 200 more rows
…
``` r
model_name <- 'example_climatology'
SN_forecast_EFI <- convert_to_efi_standard(SN_forecast, 
                                           model_id = model_name)
```

    ## # A tsibble: 420 x 8 [1D]
    ## # Key:       site_id, parameter [14]
    ##    model_id         datetime   referenc…¹ site_id family param…² varia…³ predi…⁴
    ##    <chr>            <date>     <date>     <chr>   <chr>  <chr>   <chr>     <dbl>
    ##  1 example_climato… 2023-01-11 2023-01-10 BARC    normal mu      temper…   NA   
    ##  2 example_climato… 2023-01-11 2023-01-10 BARC    normal sigma   temper…    2.03
    ##  3 example_climato… 2023-01-12 2023-01-10 BARC    normal mu      temper…   NA   
    ##  4 example_climato… 2023-01-12 2023-01-10 BARC    normal sigma   temper…    2.03
    ##  5 example_climato… 2023-01-13 2023-01-10 BARC    normal mu      temper…   NA   
    ##  6 example_climato… 2023-01-13 2023-01-10 BARC    normal sigma   temper…    2.03
    ##  7 example_climato… 2023-01-14 2023-01-10 BARC    normal mu      temper…   NA   
    ##  8 example_climato… 2023-01-14 2023-01-10 BARC    normal sigma   temper…    2.03
    ##  9 example_climato… 2023-01-15 2023-01-10 BARC    normal mu      temper…   NA   
    ## 10 example_climato… 2023-01-15 2023-01-10 BARC    normal sigma   temper…    2.03
    ## # … with 410 more rows, and abbreviated variable names ¹​reference_datetime,
    ## #   ²​parameter, ³​variable, ⁴​prediction
…
